Basic usage
…
The most aggregated table is yr which basically says how many dollars each country exports and imports for a given year.

The less aggregated table is yrpc which says how many dollars of each of the 1,242 commodities from the Harmonized System each country exports to other countries and imports from other countries.

For the complete detail you can check tradestatistics.io.

Country codes

The Package Functions section explains that you don’t need to memorize all ISO codes. The functions within this package are designed to match strings (i.e. “United States” or “America”) to valid ISO codes (i.e. “USA”).

Just as a reference, the table with all valid ISO codes can be accessed by running this:

as_tibble(ots_countries)
#> # A tibble: 275 × 5
#>    country_iso country_name_english                       country_fullname_eng…¹
#>    <chr>       <chr>                                      <chr>                 
#>  1 abw         Aruba                                      Aruba                 
#>  2 afg         Afghanistan                                Afghanistan           
#>  3 ago         Angola                                     Angola                
#>  4 aia         Anguilla                                   Anguilla              
#>  5 alb         Albania                                    Albania               
#>  6 all         Alias for all valid ISO codes in the World <NA>                  
#>  7 and         Andorra                                    Andorra               
#>  8 ant         Neth. Antilles                             Neth. Antilles        
#>  9 are         United Arab Emirates                       United Arab Emirates  
#> 10 arg         Argentina                                  Argentina             
#> # ℹ 265 more rows
#> # ℹ abbreviated name: ¹​country_fullname_english
#> # ℹ 2 more variables: continent_name_english <chr>, continent_id <int>

Commodity codes

The Package Functions section explains that you don’t need to memorize all HS codes. The functions within this package are designed to match strings (i.e. “apple”) to valid HS codes (i.e. “0808”).

as_tibble(ots_commodities)
#> # A tibble: 5,302 × 4
#>    commodity_code commodity_code_short commodity_fullname_english   section_code
#>    <chr>          <chr>                <chr>                        <chr>       
#>  1 010121         0101                 Horses; live, pure-bred bre… 01          
#>  2 010129         0101                 Horses; live, other than pu… 01          
#>  3 010130         0101                 Asses; live                  01          
#>  4 010190         0101                 Mules and hinnies; live      01          
#>  5 010221         0102                 Cattle; live, pure-bred bre… 01          
#>  6 010229         0102                 Cattle; live, other than pu… 01          
#>  7 010231         0102                 Buffalo; live, pure-bred br… 01          
#>  8 010239         0102                 Buffalo; live, other than p… 01          
#>  9 010290         0102                 Bovine animals; live, other… 01          
#> 10 010310         0103                 Swine; live, pure-bred bree… 01          
#> # ℹ 5,292 more rows

Inflation data

This table is provided to be used with ots_gdp_deflator_adjustment().

as_tibble(ots_gdp_deflator)
#> # A tibble: 8,010 × 4
#>    year_from year_to country_iso gdp_deflator
#>        <int>   <int> <chr>              <dbl>
#>  1      1986    1987 abw                 1.04
#>  2      1987    1988 abw                 1.03
#>  3      1988    1989 abw                 1.04
#>  4      1989    1990 abw                 1.06
#>  5      1990    1991 abw                 1.06
#>  6      1991    1992 abw                 1.04
#>  7      1992    1993 abw                 1.05
#>  8      1993    1994 abw                 1.06
#>  9      1994    1995 abw                 1.03
#> 10      1995    1996 abw                 1.03
#> # ℹ 8,000 more rows
…
